<?xml version="1.0" encoding="UTF-8" standalone="no"?>
<svg width="42px" height="43px" viewBox="0 0 42 43" version="1.1" xmlns="http://www.w3.org/2000/svg" xmlns:xlink="http://www.w3.org/1999/xlink" xmlns:sketch="http://www.bohemiancoding.com/sketch/ns">
    <!-- Generator: Sketch 3.0.4 (8053) - http://www.bohemiancoding.com/sketch -->
    <title>Artboard 3</title>
    <desc>Created with Sketch.</desc>
    <defs>
        <filter x="-50%" y="-50%" width="200%" height="200%" filterUnits="objectBoundingBox" id="filter-1">
            <feOffset dx="-1" dy="0" in="SourceAlpha" result="shadowOffsetOuter1"></feOffset>
            <feGaussianBlur stdDeviation="1" in="shadowOffsetOuter1" result="shadowBlurOuter1"></feGaussianBlur>
            <feColorMatrix values="0 0 0 0 0   0 0 0 0 0   0 0 0 0 0  0 0 0 0.14 0" in="shadowBlurOuter1" type="matrix" result="shadowMatrixOuter1"></feColorMatrix>
            <feMerge>
                <feMergeNode in="shadowMatrixOuter1"></feMergeNode>
                <feMergeNode in="SourceGraphic"></feMergeNode>
            </feMerge>
        </filter>
    </defs>
    <g id="Page-1" stroke="none" stroke-width="1" fill="none" fill-rule="evenodd" sketch:type="MSPage">
        <g id="Artboard-3" sketch:type="MSArtboardGroup">
            <circle id="Oval-8" fill="#FFFFFF" filter="url(#filter-1)" sketch:type="MSShapeGroup" transform="translate(21.000000, 21.000000) rotate(-90.000000) translate(-21.000000, -21.000000) " cx="21" cy="21" r="20"></circle>
            <g id="Group-5" sketch:type="MSLayerGroup" transform="translate(8.000000, 10.000000)" fill="#CCCCCC">
                <ellipse id="Oval-27" sketch:type="MSShapeGroup" cx="9.65714286" cy="5.04185022" rx="2.69285714" ry="4.57929515"></ellipse>
                <ellipse id="Oval-29" sketch:type="MSShapeGroup" cx="4.64285714" cy="10.314978" rx="2.69285714" ry="4.57929515"></ellipse>
                <ellipse id="Oval-30" sketch:type="MSShapeGroup" cx="21.3571429" cy="10.314978" rx="2.69285714" ry="4.57929515"></ellipse>
                <path d="M15.3907681,9.52107679 C13.9360436,9.21186555 13.1830212,6.95578226 13.7088454,4.48197374 C14.2346696,2.00816521 15.8402216,0.25341241 17.2949461,0.562623652 C18.7496707,0.871834895 19.5026931,3.12791818 18.9768689,5.6017267 C18.4510447,8.07553523 16.8454927,9.83028803 15.3907681,9.52107679 Z" id="Oval-28" sketch:type="MSShapeGroup"></path>
                <path d="M13,20.1784614 C12.4549559,20.4019591 7.54943187,22.3133923 5.91192028,19.4149714 C4.17712299,16.3443533 12.9998064,11.1936391 12.9998064,11.1936391 L13,11.2286556 L13.0001936,11.1936391 C13.0001936,11.1936391 21.822877,16.3443533 20.0880797,19.4149714 C18.4505681,22.3133923 13.5450441,20.4019591 13,20.1784614 Z" id="Path-267" sketch:type="MSShapeGroup"></path>
            </g>
        </g>
    </g>
</svg>