<?xml version="1.0" encoding="UTF-8" standalone="no"?>
<svg width="42px" height="43px" viewBox="0 0 42 43" version="1.1" xmlns="http://www.w3.org/2000/svg" xmlns:xlink="http://www.w3.org/1999/xlink" xmlns:sketch="http://www.bohemiancoding.com/sketch/ns">
    <!-- Generator: Sketch 3.0.4 (8053) - http://www.bohemiancoding.com/sketch -->
    <title>Artboard 3</title>
    <desc>Created with Sketch.</desc>
    <defs>
        <filter x="-50%" y="-50%" width="200%" height="200%" filterUnits="objectBoundingBox" id="filter-1">
            <feOffset dx="-1" dy="0" in="SourceAlpha" result="shadowOffsetOuter1"></feOffset>
            <feGaussianBlur stdDeviation="1" in="shadowOffsetOuter1" result="shadowBlurOuter1"></feGaussianBlur>
            <feColorMatrix values="0 0 0 0 0   0 0 0 0 0   0 0 0 0 0  0 0 0 0.14 0" in="shadowBlurOuter1" type="matrix" result="shadowMatrixOuter1"></feColorMatrix>
            <feMerge>
                <feMergeNode in="shadowMatrixOuter1"></feMergeNode>
                <feMergeNode in="SourceGraphic"></feMergeNode>
            </feMerge>
        </filter>
    </defs>
    <g id="Page-1" stroke="none" stroke-width="1" fill="none" fill-rule="evenodd" sketch:type="MSPage">
        <g id="Artboard-3" sketch:type="MSArtboardGroup">
            <circle id="Oval-8" fill="#EB5D4E" filter="url(#filter-1)" sketch:type="MSShapeGroup" transform="translate(21.000000, 21.000000) rotate(-90.000000) translate(-21.000000, -21.000000) " cx="21" cy="21" r="20"></circle>
            <g id="Group-3" sketch:type="MSLayerGroup" transform="translate(9.000000, 11.000000)">
                <rect id="Rectangle-58" fill="#FFFDFC" sketch:type="MSShapeGroup" x="0" y="2.4742268" width="24" height="17.5257732" rx="1.29896907"></rect>
                <ellipse id="Oval-39" stroke="#EB5D4E" stroke-width="1.62371134" sketch:type="MSShapeGroup" cx="13.4181818" cy="10.9278351" rx="6" ry="5.67010309"></ellipse>
                <path d="M7.63636364,2.57731959 L19.3096007,2.57731959 L17.976503,0.599045204 C17.7783377,0.304974134 17.336405,0.0665824294 16.9683403,0.0665824294 L9.81279922,0.0665824294 C9.45417164,0.0665824294 9.01144109,0.316500595 8.82453736,0.623796381 L7.63636364,2.57731959 Z" id="Path-42" fill="#FFFDFC" sketch:type="MSShapeGroup"></path>
                <rect id="Rectangle-57" fill="#FFFDFC" sketch:type="MSShapeGroup" x="0.981818182" y="1.03092784" width="3.27272727" height="2.57731959" rx="0.649484536"></rect>
                <ellipse id="Oval-40" fill="#EB5D4E" sketch:type="MSShapeGroup" cx="2.67272727" cy="4.17525773" rx="1.36363636" ry="1.28865979"></ellipse>
            </g>
        </g>
    </g>
</svg>