<?xml version="1.0" encoding="UTF-8" standalone="no"?>
<svg width="65px" height="89px" viewBox="0 0 65 89" version="1.1" xmlns="http://www.w3.org/2000/svg" xmlns:xlink="http://www.w3.org/1999/xlink" xmlns:sketch="http://www.bohemiancoding.com/sketch/ns">
    <!-- Generator: Sketch 3.2.2 (9983) - http://www.bohemiancoding.com/sketch -->
    <title>Artboard 2</title>
    <desc>Created with Sketch.</desc>
    <defs>
        <path d="M8.53275926,40.8251675 C14.0397794,58.5369061 32.4999994,79 32.4999994,79 C32.4999994,79 50.9602171,58.5369093 56.4672392,40.8251716 C57.458992,38.1344546 58,35.2296636 58,32.2 C58,32.1456126 57.9998257,32.0912654 57.9994775,32.036959 C58.0052505,31.2172091 57.9632704,30.4150112 57.8693717,29.6334435 C56.5681866,16.9213945 45.7065195,7 32.5,7 C19.2934794,7 8.43181147,16.9213962 7.13062797,29.6334468 C7.03672951,30.4150135 6.99474955,31.2172105 7.00052251,32.0369593 C7.00017435,32.0912656 7,32.1456127 7,32.2 C7,35.2296621 7.54100748,38.1344517 8.53275926,40.8251675 Z" id="path-1"></path>
    </defs>
    <g id="Page-1" stroke="none" stroke-width="1" fill="none" fill-rule="evenodd" sketch:type="MSPage">
        <g id="Artboard-2" sketch:type="MSArtboardGroup">
            <path d="M1.95351671,41.8116654 C8.97226782,63.7053423 32.4999992,89 32.4999992,89 C32.4999992,89 56.0277276,63.7053462 63.0464814,41.8116705 C64.31048,38.4856453 65,34.8950009 65,31.15 C65,31.0827711 64.9997778,31.015592 64.999334,30.9484632 C65.0066918,29.9351613 64.9531878,28.9435555 64.8335129,27.977451 C63.1751398,12.263946 49.3318386,0 32.5,0 C15.66816,0 1.82485775,12.2639481 0.166486624,27.9774551 C0.0468121153,28.9435584 -0.00669174713,29.935163 0.000665948873,30.9484635 C0.000222204799,31.0155922 0,31.0827712 0,31.15 C0,34.894999 0.689519337,38.4856417 1.95351671,41.8116654 Z" id="Marker-5" fill="#FAF8F6" sketch:type="MSShapeGroup"></path>
            <path d="M5.71308388,41.1137255 C11.8679887,60.5474387 32.4999993,83 32.4999993,83 C32.4999993,83 53.1320073,60.5474422 59.2869144,41.11373 C60.395344,38.1614155 61,34.9742143 61,31.65 C61,31.5903249 60.9998051,31.530694 60.999416,31.4711078 C61.0058682,30.57166 60.9589493,29.6914706 60.8540037,28.8339172 C59.399738,14.8859745 47.2602277,4 32.5,4 C17.739771,4 5.60025987,14.8859764 4.14599596,28.8339208 C4.04105062,29.6914732 3.99413185,30.5716615 4.00058399,31.4711081 C4.00019486,31.5306942 4,31.590325 4,31.65 C4,34.9742126 4.60465542,38.1614123 5.71308388,41.1137255 Z" id="Marker-4" stroke="#F0ECE9" fill="#FFFFFF" sketch:type="MSShapeGroup"></path>
            <g id="Marker-3">
                <use fill="#EC4646" fill-rule="evenodd" sketch:type="MSShapeGroup" xlink:href="#path-1"></use>
                <use fill="none" xlink:href="#path-1"></use>
            </g>
        </g>
    </g>
</svg>