<?xml version="1.0" encoding="UTF-8" standalone="no"?>
<svg width="42px" height="43px" viewBox="0 0 42 43" version="1.1" xmlns="http://www.w3.org/2000/svg" xmlns:xlink="http://www.w3.org/1999/xlink" xmlns:sketch="http://www.bohemiancoding.com/sketch/ns">
    <!-- Generator: Sketch 3.0.4 (8053) - http://www.bohemiancoding.com/sketch -->
    <title>Artboard 3</title>
    <desc>Created with Sketch.</desc>
    <defs>
        <filter x="-50%" y="-50%" width="200%" height="200%" filterUnits="objectBoundingBox" id="filter-1">
            <feOffset dx="-1" dy="0" in="SourceAlpha" result="shadowOffsetOuter1"></feOffset>
            <feGaussianBlur stdDeviation="1" in="shadowOffsetOuter1" result="shadowBlurOuter1"></feGaussianBlur>
            <feColorMatrix values="0 0 0 0 0   0 0 0 0 0   0 0 0 0 0  0 0 0 0.14 0" in="shadowBlurOuter1" type="matrix" result="shadowMatrixOuter1"></feColorMatrix>
            <feMerge>
                <feMergeNode in="shadowMatrixOuter1"></feMergeNode>
                <feMergeNode in="SourceGraphic"></feMergeNode>
            </feMerge>
        </filter>
    </defs>
    <g id="Page-1" stroke="none" stroke-width="1" fill="none" fill-rule="evenodd" sketch:type="MSPage">
        <g id="Artboard-3" sketch:type="MSArtboardGroup">
            <circle id="Oval-8" fill="#FFFFFF" filter="url(#filter-1)" sketch:type="MSShapeGroup" transform="translate(21.000000, 21.000000) rotate(-90.000000) translate(-21.000000, -21.000000) " cx="21" cy="21" r="20"></circle>
            <g id="Rectangle-49-+-Path-33" sketch:type="MSLayerGroup" transform="translate(8.000000, 10.000000)" fill="#CCCCCC">
                <rect id="Rectangle-49" sketch:type="MSShapeGroup" x="10.0164474" y="14.8372557" width="6.81818182" height="7.34082361"></rect>
                <path d="M3.7201561,15.2453143 C2.97030014,16.494528 1.48134508,17.6783424 1.48134508,17.6783424 C0.663220784,18.4043831 0.895913286,18.9929554 2.00049528,18.9929554 L24.4707312,18.9929554 C25.5755743,18.9929554 25.7989529,18.3914159 24.9908519,17.6429357 C24.9908519,17.6429357 23.1755759,16.1169973 22.2630447,14.6790182 C18.6410494,8.9714288 14.2351371,0.219716676 14.2351371,0.219716676 C13.4798932,-1.25127535 12.2830448,-1.2259753 11.5622944,0.259464525 C11.5622944,0.259464525 7.25951583,9.34895952 3.7201561,15.2453143 Z" id="Path-32" sketch:type="MSShapeGroup"></path>
            </g>
        </g>
    </g>
</svg>