<?xml version="1.0" encoding="UTF-8" standalone="no"?>
<svg width="19px" height="22px" viewBox="0 0 19 22" version="1.1" xmlns="http://www.w3.org/2000/svg" xmlns:xlink="http://www.w3.org/1999/xlink" xmlns:sketch="http://www.bohemiancoding.com/sketch/ns">
    <!-- Generator: Sketch 3.2 (9961) - http://www.bohemiancoding.com/sketch -->
    <title>Artboard 4</title>
    <desc>Created with Sketch.</desc>
    <defs></defs>
    <g id="Page-1" stroke="none" stroke-width="1" fill="none" fill-rule="evenodd" sketch:type="MSPage">
        <g id="Artboard-4" sketch:type="MSArtboardGroup" fill="#444848">
            <path d="M13.25,17.1497725 C17.1317612,16.1826339 20,12.77162 20,8.71212121 C20,3.90054953 15.9705627,0 11,0 C6.02943725,0 2,3.90054953 2,8.71212121 C2,12.77162 4.86823877,16.1826339 8.75,17.1497725 L8.75,21.991079 C8.75,22.5482907 9.19792891,23 9.74869585,23 L12.2513041,23 C12.8028686,23 13.25,22.5563827 13.25,21.991079 L13.25,17.1497725 L13.25,17.1497725 Z M11,13.0681818 C13.4852814,13.0681818 15.5,11.1179071 15.5,8.71212121 C15.5,6.30633537 13.4852814,4.35606061 11,4.35606061 C8.51471863,4.35606061 6.5,6.30633537 6.5,8.71212121 C6.5,11.1179071 8.51471863,13.0681818 11,13.0681818 Z" id="Oval-14" sketch:type="MSShapeGroup" transform="translate(11.000000, 11.500000) rotate(-33.000000) translate(-11.000000, -11.500000) "></path>
        </g>
    </g>
</svg>