<?xml version="1.0" encoding="UTF-8" standalone="no"?>
<svg width="42px" height="43px" viewBox="0 0 42 43" version="1.1" xmlns="http://www.w3.org/2000/svg" xmlns:xlink="http://www.w3.org/1999/xlink" xmlns:sketch="http://www.bohemiancoding.com/sketch/ns">
    <!-- Generator: Sketch 3.0.4 (8053) - http://www.bohemiancoding.com/sketch -->
    <title>Artboard 3</title>
    <desc>Created with Sketch.</desc>
    <defs>
        <filter x="-50%" y="-50%" width="200%" height="200%" filterUnits="objectBoundingBox" id="filter-1">
            <feOffset dx="-1" dy="0" in="SourceAlpha" result="shadowOffsetOuter1"></feOffset>
            <feGaussianBlur stdDeviation="1" in="shadowOffsetOuter1" result="shadowBlurOuter1"></feGaussianBlur>
            <feColorMatrix values="0 0 0 0 0   0 0 0 0 0   0 0 0 0 0  0 0 0 0.14 0" in="shadowBlurOuter1" type="matrix" result="shadowMatrixOuter1"></feColorMatrix>
            <feMerge>
                <feMergeNode in="shadowMatrixOuter1"></feMergeNode>
                <feMergeNode in="SourceGraphic"></feMergeNode>
            </feMerge>
        </filter>
    </defs>
    <g id="Page-1" stroke="none" stroke-width="1" fill="none" fill-rule="evenodd" sketch:type="MSPage">
        <g id="Artboard-3" sketch:type="MSArtboardGroup">
            <circle id="Oval-8" fill="#EB5D4E" filter="url(#filter-1)" sketch:type="MSShapeGroup" transform="translate(21.000000, 21.000000) rotate(-90.000000) translate(-21.000000, -21.000000) " cx="21" cy="21" r="20"></circle>
            <g id="Oval-32-+-Line-6-+-Line-8" sketch:type="MSLayerGroup" transform="translate(8.000000, 8.000000)">
                <path d="M24.7571738,13.3905579 C24.5826381,19.5582782 19.600407,24.5337212 13.3939394,24.764187 L13.3939394,24.764187 L13.3939394,13.3905579 L24.7571738,13.3905579 Z M24.7487412,12.4978482 C24.4619847,6.43369303 19.5253682,1.5750804 13.3939394,1.34740097 L13.3939394,12.4978541 L24.7487414,12.4978541 Z M1.13870472,12.4978482 C1.42546122,6.43369303 6.36207772,1.5750804 12.4935065,1.34740097 L12.4935065,1.34740097 L12.4935065,12.4978541 L1.13870444,12.4978541 Z M1.13027209,13.3905579 C1.30480774,19.5582782 6.28703893,24.5337212 12.4935065,24.764187 L12.4935065,13.3905579 L1.13027209,13.3905579 Z" id="Oval-32" fill="#FFFDFC" sketch:type="MSShapeGroup"></path>
                <path d="M6.42857143,2.06437768 C6.42857143,2.06437768 8.79220779,9.168522 8.79220779,12.9437701 C8.79220779,16.4961329 6.42857143,24.0472103 6.42857143,24.0472103" id="Line-6" stroke="#EB5D4E" stroke-linecap="square" sketch:type="MSShapeGroup"></path>
                <path d="M19.4588745,2.06437768 C19.4588745,2.06437768 17.0952381,9.168522 17.0952381,12.9437701 C17.0952381,16.4961329 19.4588745,24.0472103 19.4588745,24.0472103" id="Line-7" stroke="#EB5D4E" stroke-linecap="square" sketch:type="MSShapeGroup"></path>
            </g>
        </g>
    </g>
</svg>